{
	"description": "项目配置文件。",
	"setting": {
		"urlCheck": false,
		"es6": false,
		"postcss": true,
		"minified": true,
		"newFeature": true
	},
	"miniprogramRoot": "dist/",
	"compileType": "miniprogram",
	"appid": "wx93630b4188a12907",
	"projectname": "%E5%AE%89%E5%8D%93%E6%BB%A4%E9%95%9C%E6%B8%B2%E6%9F%93%E5%A4%B1%E8%B4%A5%20iOS%E6%AD%A3%E5%B8%B8",
	"libVersion": "2.6.6",
	"condition": {
		"search": {
			"current": -1,
			"list": []
		},
		"conversation": {
			"current": -1,
			"list": []
		},
		"plugin": {
			"current": -1,
			"list": []
		},
		"game": {
			"currentL": -1,
			"list": []
		},
		"miniprogram": {
			"current": -1,
			"list": [
				{
					"id": -1,
					"name": "模拟更新",
					"pathName": "pages/index/main",
					"query": ""
				}
			]
		}
	}
}